{
    "name": "Mfiles",
    "alias": "mfiles",
    "description": "",
    "keywords": [],
    "active": 1,
    "order": 0,
    "providers": [
        "Modules\\Mfiles\\Providers\\MfilesServiceProvider"
    ],
    "aliases": [],
    "files": [],
    "requires": []
}