[
    [
        {
            "TypedValue": {
                "Value": "Warkah Induk 00003, BRANGSONG",
                "HasValue": true,
                "DisplayValue": "Warkah Induk 00003, BRANGSONG",
                "SerializedValue": "Warkah%20Induk%2000003%2C%20BRANGSONG",
                "DataType": 1,
                "SortingKey": "",
                "HasAutomaticPermission": false
            },
            "Value": {
                "Value": "Warkah Induk 00003, BRANGSONG",
                "HasValue": true,
                "DisplayValue": "Warkah Induk 00003, BRANGSONG",
                "SerializedValue": "Warkah%20Induk%2000003%2C%20BRANGSONG",
                "DataType": 1,
                "SortingKey": "",
                "HasAutomaticPermission": false
            },
            "PropertyDef": 0,
            "ContentType": 0
        },
        {
            "TypedValue": {
                "Value": "2020-03-04T09:29:34Z",
                "HasValue": true,
                "DisplayValue": "3/4/2020 9:29 AM",
                "SerializedValue": "2020-03-04T09%3A29%3A34",
                "DataType": 7,
                "SortingKey": "637189109740000000",
                "HasAutomaticPermission": false
            },
            "Value": {
                "Value": "2020-03-04T09:29:34Z",
                "HasValue": true,
                "DisplayValue": "3/4/2020 9:29 AM",
                "SerializedValue": "2020-03-04T09%3A29%3A34",
                "DataType": 7,
                "SortingKey": "637189109740000000",
                "HasAutomaticPermission": false
            },
            "PropertyDef": 21,
            "ContentType": 0
        },
        {
            "TypedValue": {
                "Value": true,
                "HasValue": true,
                "DisplayValue": "Yes",
                "SerializedValue": "True",
                "DataType": 8,
                "SortingKey": "",
                "HasAutomaticPermission": false
            },
            "Value": {
                "Value": true,
                "HasValue": true,
                "DisplayValue": "Yes",
                "SerializedValue": "True",
                "DataType": 8,
                "SortingKey": "",
                "HasAutomaticPermission": false
            },
            "PropertyDef": 22,
            "ContentType": 0
        },
        {
            "TypedValue": {
                "Lookup": {
                    "Item": 19,
                    "Version": -1,
                    "DisplayValue": "Mochammad Chaqqul Islam",
                    "VersionType": 1,
                    "ObjectType": 6,
                    "ObjectFlags": 64
                },
                "HasValue": true,
                "DisplayValue": "Mochammad Chaqqul Islam",
                "SerializedValue": "19",
                "DataType": 9,
                "SortingKey": "",
                "HasAutomaticPermission": false
            },
            "Value": {
                "Lookup": {
                    "Item": 19,
                    "Version": -1,
                    "DisplayValue": "Mochammad Chaqqul Islam",
                    "VersionType": 1,
                    "ObjectType": 6,
                    "ObjectFlags": 64
                },
                "HasValue": true,
                "DisplayValue": "Mochammad Chaqqul Islam",
                "SerializedValue": "19",
                "DataType": 9,
                "SortingKey": "",
                "HasAutomaticPermission": false
            },
            "PropertyDef": 23,
            "ContentType": 0
        },
        {
            "TypedValue": {
                "Value": "2020-03-04T09:29:34Z",
                "HasValue": true,
                "DisplayValue": "3/4/2020 9:29 AM",
                "SerializedValue": "2020-03-04T09%3A29%3A34",
                "DataType": 7,
                "SortingKey": "637189109740000000",
                "HasAutomaticPermission": false
            },
            "Value": {
                "Value": "2020-03-04T09:29:34Z",
                "HasValue": true,
                "DisplayValue": "3/4/2020 9:29 AM",
                "SerializedValue": "2020-03-04T09%3A29%3A34",
                "DataType": 7,
                "SortingKey": "637189109740000000",
                "HasAutomaticPermission": false
            },
            "PropertyDef": 24,
            "ContentType": 0
        },
        {
            "TypedValue": {
                "Value": 0,
                "HasValue": true,
                "DisplayValue": "0",
                "SerializedValue": "0",
                "DataType": 2,
                "SortingKey": "0",
                "IsNumberSorting": true,
                "HasAutomaticPermission": false
            },
            "Value": {
                "Value": 0,
                "HasValue": true,
                "DisplayValue": "0",
                "SerializedValue": "0",
                "DataType": 2,
                "SortingKey": "0",
                "IsNumberSorting": true,
                "HasAutomaticPermission": false
            },
            "PropertyDef": 30,
            "ContentType": 0
        },
        {
            "TypedValue": {
                "DisplayValue": "",
                "DataType": 9,
                "SortingKey": "",
                "HasAutomaticPermission": false
            },
            "Value": {
                "DisplayValue": "",
                "DataType": 9,
                "SortingKey": "",
                "HasAutomaticPermission": false
            },
            "PropertyDef": 39,
            "ContentType": 0
        },
        {
            "TypedValue": {
                "Lookup": {
                    "Item": 17,
                    "Version": -1,
                    "DisplayValue": "Sertifikat",
                    "VersionType": 1,
                    "ObjectType": 1,
                    "ObjectFlags": 64
                },
                "HasValue": true,
                "DisplayValue": "Sertifikat",
                "SerializedValue": "17",
                "DataType": 9,
                "SortingKey": "",
                "HasAutomaticPermission": false
            },
            "Value": {
                "Lookup": {
                    "Item": 17,
                    "Version": -1,
                    "DisplayValue": "Sertifikat",
                    "VersionType": 1,
                    "ObjectType": 1,
                    "ObjectFlags": 64
                },
                "HasValue": true,
                "DisplayValue": "Sertifikat",
                "SerializedValue": "17",
                "DataType": 9,
                "SortingKey": "",
                "HasAutomaticPermission": false
            },
            "PropertyDef": 100,
            "ContentType": 0
        },
        {
            "TypedValue": {
                "Lookups": [
                    {
                        "Item": 3,
                        "Version": -1,
                        "DisplayValue": "Land Bank Holding",
                        "VersionType": 1,
                        "ObjectType": 2,
                        "ObjectFlags": 64
                    }
                ],
                "HasValue": true,
                "DisplayValue": "Land Bank Holding",
                "SerializedValue": "3",
                "DataType": 10,
                "SortingKey": "",
                "HasAutomaticPermission": false
            },
            "Value": {
                "Lookups": [
                    {
                        "Item": 3,
                        "Version": -1,
                        "DisplayValue": "Land Bank Holding",
                        "VersionType": 1,
                        "ObjectType": 2,
                        "ObjectFlags": 64
                    }
                ],
                "HasValue": true,
                "DisplayValue": "Land Bank Holding",
                "SerializedValue": "3",
                "DataType": 10,
                "SortingKey": "",
                "HasAutomaticPermission": false
            },
            "PropertyDef": 101,
            "ContentType": 0
        },
        {
            "TypedValue": {
                "Lookups": [
                    {
                        "Item": 654,
                        "Version": -1,
                        "DisplayValue": "Pembayaran WARKAH HGB 00003 BRANGSONG dan PERMOHONAN HAK",
                        "VersionType": 1,
                        "ObjectType": 0,
                        "ObjectFlags": 64
                    }
                ],
                "HasValue": true,
                "DisplayValue": "Pembayaran WARKAH HGB 00003 BRANGSONG dan PERMOHONAN HAK",
                "SerializedValue": "654",
                "DataType": 10,
                "SortingKey": "",
                "HasAutomaticPermission": false
            },
            "Value": {
                "Lookups": [
                    {
                        "Item": 654,
                        "Version": -1,
                        "DisplayValue": "Pembayaran WARKAH HGB 00003 BRANGSONG dan PERMOHONAN HAK",
                        "VersionType": 1,
                        "ObjectType": 0,
                        "ObjectFlags": 64
                    }
                ],
                "HasValue": true,
                "DisplayValue": "Pembayaran WARKAH HGB 00003 BRANGSONG dan PERMOHONAN HAK",
                "SerializedValue": "654",
                "DataType": 10,
                "SortingKey": "",
                "HasAutomaticPermission": false
            },
            "PropertyDef": 1051,
            "ContentType": 0
        },
        {
            "TypedValue": {
                "Value": "BRANGSONG",
                "HasValue": true,
                "DisplayValue": "BRANGSONG",
                "SerializedValue": "BRANGSONG",
                "DataType": 13,
                "SortingKey": "",
                "HasAutomaticPermission": false
            },
            "Value": {
                "Value": "BRANGSONG",
                "HasValue": true,
                "DisplayValue": "BRANGSONG",
                "SerializedValue": "BRANGSONG",
                "DataType": 13,
                "SortingKey": "",
                "HasAutomaticPermission": false
            },
            "PropertyDef": 1068,
            "ContentType": 0
        },
        {
            "TypedValue": {
                "Value": "112.000",
                "HasValue": true,
                "DisplayValue": "112.000",
                "SerializedValue": "112.000",
                "DataType": 1,
                "SortingKey": "",
                "HasAutomaticPermission": false
            },
            "Value": {
                "Value": "112.000",
                "HasValue": true,
                "DisplayValue": "112.000",
                "SerializedValue": "112.000",
                "DataType": 1,
                "SortingKey": "",
                "HasAutomaticPermission": false
            },
            "PropertyDef": 1097,
            "ContentType": 0
        },
        {
            "TypedValue": {
                "Value": "Warkah Induk 00003, BRANGSONG",
                "HasValue": true,
                "DisplayValue": "Warkah Induk 00003, BRANGSONG",
                "SerializedValue": "Warkah%20Induk%2000003%2C%20BRANGSONG",
                "DataType": 1,
                "SortingKey": "",
                "HasAutomaticPermission": false
            },
            "Value": {
                "Value": "Warkah Induk 00003, BRANGSONG",
                "HasValue": true,
                "DisplayValue": "Warkah Induk 00003, BRANGSONG",
                "SerializedValue": "Warkah%20Induk%2000003%2C%20BRANGSONG",
                "DataType": 1,
                "SortingKey": "",
                "HasAutomaticPermission": false
            },
            "PropertyDef": 1101,
            "ContentType": 0
        },
        {
            "TypedValue": {
                "Value": "00003",
                "HasValue": true,
                "DisplayValue": "00003",
                "SerializedValue": "00003",
                "DataType": 1,
                "SortingKey": "",
                "HasAutomaticPermission": false
            },
            "Value": {
                "Value": "00003",
                "HasValue": true,
                "DisplayValue": "00003",
                "SerializedValue": "00003",
                "DataType": 1,
                "SortingKey": "",
                "HasAutomaticPermission": false
            },
            "PropertyDef": 1102,
            "ContentType": 0
        },
        {
            "TypedValue": {
                "Value": "2015-12-10T00:00:00Z",
                "HasValue": true,
                "DisplayValue": "12/10/2015",
                "SerializedValue": "2015-12-10T00%3A00%3A00",
                "DataType": 5,
                "SortingKey": "635853024000000000",
                "HasAutomaticPermission": false
            },
            "Value": {
                "Value": "2015-12-10T00:00:00Z",
                "HasValue": true,
                "DisplayValue": "12/10/2015",
                "SerializedValue": "2015-12-10T00%3A00%3A00",
                "DataType": 5,
                "SortingKey": "635853024000000000",
                "HasAutomaticPermission": false
            },
            "PropertyDef": 1103,
            "ContentType": 0
        },
        {
            "TypedValue": {
                "Lookup": {
                    "Item": 1,
                    "Version": -1,
                    "DisplayValue": "HGB",
                    "VersionType": 1,
                    "ObjectType": 116,
                    "ObjectFlags": 64
                },
                "HasValue": true,
                "DisplayValue": "HGB",
                "SerializedValue": "1",
                "DataType": 9,
                "SortingKey": "",
                "HasAutomaticPermission": false
            },
            "Value": {
                "Lookup": {
                    "Item": 1,
                    "Version": -1,
                    "DisplayValue": "HGB",
                    "VersionType": 1,
                    "ObjectType": 116,
                    "ObjectFlags": 64
                },
                "HasValue": true,
                "DisplayValue": "HGB",
                "SerializedValue": "1",
                "DataType": 9,
                "SortingKey": "",
                "HasAutomaticPermission": false
            },
            "PropertyDef": 1105,
            "ContentType": 0
        },
        {
            "TypedValue": {
                "Value": "2045-12-10T00:00:00Z",
                "HasValue": true,
                "DisplayValue": "12/10/2045",
                "SerializedValue": "2045-12-10T00%3A00%3A00",
                "DataType": 5,
                "SortingKey": "645320736000000000",
                "HasAutomaticPermission": false
            },
            "Value": {
                "Value": "2045-12-10T00:00:00Z",
                "HasValue": true,
                "DisplayValue": "12/10/2045",
                "SerializedValue": "2045-12-10T00%3A00%3A00",
                "DataType": 5,
                "SortingKey": "645320736000000000",
                "HasAutomaticPermission": false
            },
            "PropertyDef": 1106,
            "ContentType": 0
        },
        {
            "TypedValue": {
                "Lookup": {
                    "Item": 1,
                    "Version": -1,
                    "DisplayValue": "Induk",
                    "VersionType": 1,
                    "ObjectType": 117,
                    "ObjectFlags": 64
                },
                "HasValue": true,
                "DisplayValue": "Induk",
                "SerializedValue": "1",
                "DataType": 9,
                "SortingKey": "",
                "HasAutomaticPermission": false
            },
            "Value": {
                "Lookup": {
                    "Item": 1,
                    "Version": -1,
                    "DisplayValue": "Induk",
                    "VersionType": 1,
                    "ObjectType": 117,
                    "ObjectFlags": 64
                },
                "HasValue": true,
                "DisplayValue": "Induk",
                "SerializedValue": "1",
                "DataType": 9,
                "SortingKey": "",
                "HasAutomaticPermission": false
            },
            "PropertyDef": 1108,
            "ContentType": 0
        },
        {
            "TypedValue": {
                "Value": "00008",
                "HasValue": true,
                "DisplayValue": "00008",
                "SerializedValue": "00008",
                "DataType": 1,
                "SortingKey": "",
                "HasAutomaticPermission": false
            },
            "Value": {
                "Value": "00008",
                "HasValue": true,
                "DisplayValue": "00008",
                "SerializedValue": "00008",
                "DataType": 1,
                "SortingKey": "",
                "HasAutomaticPermission": false
            },
            "PropertyDef": 1111,
            "ContentType": 0
        },
        {
            "TypedValue": {
                "Value": "Kawasan Industri Kendal",
                "HasValue": true,
                "DisplayValue": "Kawasan Industri Kendal",
                "SerializedValue": "Kawasan%20Industri%20Kendal",
                "DataType": 1,
                "SortingKey": "",
                "HasAutomaticPermission": false
            },
            "Value": {
                "Value": "Kawasan Industri Kendal",
                "HasValue": true,
                "DisplayValue": "Kawasan Industri Kendal",
                "SerializedValue": "Kawasan%20Industri%20Kendal",
                "DataType": 1,
                "SortingKey": "",
                "HasAutomaticPermission": false
            },
            "PropertyDef": 1112,
            "ContentType": 0
        },
        {
            "TypedValue": {
                "Value": "2020-01-20T09:24:26Z",
                "HasValue": true,
                "DisplayValue": "1/20/2020 9:24 AM",
                "SerializedValue": "2020-01-20T09%3A24%3A26",
                "DataType": 7,
                "SortingKey": "637151090660000000",
                "HasAutomaticPermission": false
            },
            "Value": {
                "Value": "2020-01-20T09:24:26Z",
                "HasValue": true,
                "DisplayValue": "1/20/2020 9:24 AM",
                "SerializedValue": "2020-01-20T09%3A24%3A26",
                "DataType": 7,
                "SortingKey": "637151090660000000",
                "HasAutomaticPermission": false
            },
            "PropertyDef": 20,
            "ContentType": 0
        },
        {
            "TypedValue": {
                "Lookup": {
                    "Item": 19,
                    "Version": -1,
                    "DisplayValue": "Mochammad Chaqqul Islam",
                    "VersionType": 1,
                    "ObjectType": 6,
                    "ObjectFlags": 64
                },
                "HasValue": true,
                "DisplayValue": "Mochammad Chaqqul Islam",
                "SerializedValue": "19",
                "DataType": 9,
                "SortingKey": "",
                "HasAutomaticPermission": false
            },
            "Value": {
                "Lookup": {
                    "Item": 19,
                    "Version": -1,
                    "DisplayValue": "Mochammad Chaqqul Islam",
                    "VersionType": 1,
                    "ObjectType": 6,
                    "ObjectFlags": 64
                },
                "HasValue": true,
                "DisplayValue": "Mochammad Chaqqul Islam",
                "SerializedValue": "19",
                "DataType": 9,
                "SortingKey": "",
                "HasAutomaticPermission": false
            },
            "PropertyDef": 25,
            "ContentType": 0
        },
        {
            "TypedValue": {
                "Value": 1293476,
                "HasValue": true,
                "DisplayValue": "1293476",
                "SerializedValue": "1293476",
                "DataType": 2,
                "SortingKey": "1293476",
                "IsNumberSorting": true,
                "HasAutomaticPermission": false
            },
            "Value": {
                "Value": 1293476,
                "HasValue": true,
                "DisplayValue": "1293476",
                "SerializedValue": "1293476",
                "DataType": 2,
                "SortingKey": "1293476",
                "IsNumberSorting": true,
                "HasAutomaticPermission": false
            },
            "PropertyDef": 31,
            "ContentType": 0
        },
        {
            "TypedValue": {
                "Value": false,
                "HasValue": true,
                "DisplayValue": "No",
                "SerializedValue": "False",
                "DataType": 8,
                "SortingKey": "",
                "HasAutomaticPermission": false
            },
            "Value": {
                "Value": false,
                "HasValue": true,
                "DisplayValue": "No",
                "SerializedValue": "False",
                "DataType": 8,
                "SortingKey": "",
                "HasAutomaticPermission": false
            },
            "PropertyDef": 32,
            "ContentType": 0
        },
        {
            "TypedValue": {
                "Value": "2020-04-29T07:03:38Z",
                "HasValue": true,
                "DisplayValue": "4/29/2020 7:03 AM",
                "SerializedValue": "2020-04-29T07%3A03%3A38",
                "DataType": 7,
                "SortingKey": "637237406180000000",
                "HasAutomaticPermission": false
            },
            "Value": {
                "Value": "2020-04-29T07:03:38Z",
                "HasValue": true,
                "DisplayValue": "4/29/2020 7:03 AM",
                "SerializedValue": "2020-04-29T07%3A03%3A38",
                "DataType": 7,
                "SortingKey": "637237406180000000",
                "HasAutomaticPermission": false
            },
            "PropertyDef": 81,
            "ContentType": 0
        },
        {
            "TypedValue": {
                "Value": "2020-03-04T09:29:34Z",
                "HasValue": true,
                "DisplayValue": "3/4/2020 9:29 AM",
                "SerializedValue": "2020-03-04T09%3A29%3A34",
                "DataType": 7,
                "SortingKey": "637189109740000000",
                "HasAutomaticPermission": false
            },
            "Value": {
                "Value": "2020-03-04T09:29:34Z",
                "HasValue": true,
                "DisplayValue": "3/4/2020 9:29 AM",
                "SerializedValue": "2020-03-04T09%3A29%3A34",
                "DataType": 7,
                "SortingKey": "637189109740000000",
                "HasAutomaticPermission": false
            },
            "PropertyDef": 89,
            "ContentType": 0
        }
    ],
    [
        {
            "TypedValue": {
                "Value": "Warkah Induk 00004, BRANGSONG",
                "HasValue": true,
                "DisplayValue": "Warkah Induk 00004, BRANGSONG",
                "SerializedValue": "Warkah%20Induk%2000004%2C%20BRANGSONG",
                "DataType": 1,
                "SortingKey": "",
                "HasAutomaticPermission": false
            },
            "Value": {
                "Value": "Warkah Induk 00004, BRANGSONG",
                "HasValue": true,
                "DisplayValue": "Warkah Induk 00004, BRANGSONG",
                "SerializedValue": "Warkah%20Induk%2000004%2C%20BRANGSONG",
                "DataType": 1,
                "SortingKey": "",
                "HasAutomaticPermission": false
            },
            "PropertyDef": 0,
            "ContentType": 0
        },
        {
            "TypedValue": {
                "Value": "2020-03-04T09:29:57Z",
                "HasValue": true,
                "DisplayValue": "3/4/2020 9:29 AM",
                "SerializedValue": "2020-03-04T09%3A29%3A57",
                "DataType": 7,
                "SortingKey": "637189109970000000",
                "HasAutomaticPermission": false
            },
            "Value": {
                "Value": "2020-03-04T09:29:57Z",
                "HasValue": true,
                "DisplayValue": "3/4/2020 9:29 AM",
                "SerializedValue": "2020-03-04T09%3A29%3A57",
                "DataType": 7,
                "SortingKey": "637189109970000000",
                "HasAutomaticPermission": false
            },
            "PropertyDef": 21,
            "ContentType": 0
        },
        {
            "TypedValue": {
                "Value": true,
                "HasValue": true,
                "DisplayValue": "Yes",
                "SerializedValue": "True",
                "DataType": 8,
                "SortingKey": "",
                "HasAutomaticPermission": false
            },
            "Value": {
                "Value": true,
                "HasValue": true,
                "DisplayValue": "Yes",
                "SerializedValue": "True",
                "DataType": 8,
                "SortingKey": "",
                "HasAutomaticPermission": false
            },
            "PropertyDef": 22,
            "ContentType": 0
        },
        {
            "TypedValue": {
                "Lookup": {
                    "Item": 19,
                    "Version": -1,
                    "DisplayValue": "Mochammad Chaqqul Islam",
                    "VersionType": 1,
                    "ObjectType": 6,
                    "ObjectFlags": 64
                },
                "HasValue": true,
                "DisplayValue": "Mochammad Chaqqul Islam",
                "SerializedValue": "19",
                "DataType": 9,
                "SortingKey": "",
                "HasAutomaticPermission": false
            },
            "Value": {
                "Lookup": {
                    "Item": 19,
                    "Version": -1,
                    "DisplayValue": "Mochammad Chaqqul Islam",
                    "VersionType": 1,
                    "ObjectType": 6,
                    "ObjectFlags": 64
                },
                "HasValue": true,
                "DisplayValue": "Mochammad Chaqqul Islam",
                "SerializedValue": "19",
                "DataType": 9,
                "SortingKey": "",
                "HasAutomaticPermission": false
            },
            "PropertyDef": 23,
            "ContentType": 0
        },
        {
            "TypedValue": {
                "Value": "2020-03-04T09:29:57Z",
                "HasValue": true,
                "DisplayValue": "3/4/2020 9:29 AM",
                "SerializedValue": "2020-03-04T09%3A29%3A57",
                "DataType": 7,
                "SortingKey": "637189109970000000",
                "HasAutomaticPermission": false
            },
            "Value": {
                "Value": "2020-03-04T09:29:57Z",
                "HasValue": true,
                "DisplayValue": "3/4/2020 9:29 AM",
                "SerializedValue": "2020-03-04T09%3A29%3A57",
                "DataType": 7,
                "SortingKey": "637189109970000000",
                "HasAutomaticPermission": false
            },
            "PropertyDef": 24,
            "ContentType": 0
        },
        {
            "TypedValue": {
                "Value": 0,
                "HasValue": true,
                "DisplayValue": "0",
                "SerializedValue": "0",
                "DataType": 2,
                "SortingKey": "0",
                "IsNumberSorting": true,
                "HasAutomaticPermission": false
            },
            "Value": {
                "Value": 0,
                "HasValue": true,
                "DisplayValue": "0",
                "SerializedValue": "0",
                "DataType": 2,
                "SortingKey": "0",
                "IsNumberSorting": true,
                "HasAutomaticPermission": false
            },
            "PropertyDef": 30,
            "ContentType": 0
        },
        {
            "TypedValue": {
                "DisplayValue": "",
                "DataType": 9,
                "SortingKey": "",
                "HasAutomaticPermission": false
            },
            "Value": {
                "DisplayValue": "",
                "DataType": 9,
                "SortingKey": "",
                "HasAutomaticPermission": false
            },
            "PropertyDef": 39,
            "ContentType": 0
        },
        {
            "TypedValue": {
                "Lookup": {
                    "Item": 17,
                    "Version": -1,
                    "DisplayValue": "Sertifikat",
                    "VersionType": 1,
                    "ObjectType": 1,
                    "ObjectFlags": 64
                },
                "HasValue": true,
                "DisplayValue": "Sertifikat",
                "SerializedValue": "17",
                "DataType": 9,
                "SortingKey": "",
                "HasAutomaticPermission": false
            },
            "Value": {
                "Lookup": {
                    "Item": 17,
                    "Version": -1,
                    "DisplayValue": "Sertifikat",
                    "VersionType": 1,
                    "ObjectType": 1,
                    "ObjectFlags": 64
                },
                "HasValue": true,
                "DisplayValue": "Sertifikat",
                "SerializedValue": "17",
                "DataType": 9,
                "SortingKey": "",
                "HasAutomaticPermission": false
            },
            "PropertyDef": 100,
            "ContentType": 0
        },
        {
            "TypedValue": {
                "Lookups": [
                    {
                        "Item": 3,
                        "Version": -1,
                        "DisplayValue": "Land Bank Holding",
                        "VersionType": 1,
                        "ObjectType": 2,
                        "ObjectFlags": 64
                    }
                ],
                "HasValue": true,
                "DisplayValue": "Land Bank Holding",
                "SerializedValue": "3",
                "DataType": 10,
                "SortingKey": "",
                "HasAutomaticPermission": false
            },
            "Value": {
                "Lookups": [
                    {
                        "Item": 3,
                        "Version": -1,
                        "DisplayValue": "Land Bank Holding",
                        "VersionType": 1,
                        "ObjectType": 2,
                        "ObjectFlags": 64
                    }
                ],
                "HasValue": true,
                "DisplayValue": "Land Bank Holding",
                "SerializedValue": "3",
                "DataType": 10,
                "SortingKey": "",
                "HasAutomaticPermission": false
            },
            "PropertyDef": 101,
            "ContentType": 0
        },
        {
            "TypedValue": {
                "Lookups": [
                    {
                        "Item": 655,
                        "Version": -1,
                        "DisplayValue": "Pembayaran WARKAH HGB 00004 BRANGSONG dan PERMOHONAN HAK",
                        "VersionType": 1,
                        "ObjectType": 0,
                        "ObjectFlags": 64
                    }
                ],
                "HasValue": true,
                "DisplayValue": "Pembayaran WARKAH HGB 00004 BRANGSONG dan PERMOHONAN HAK",
                "SerializedValue": "655",
                "DataType": 10,
                "SortingKey": "",
                "HasAutomaticPermission": false
            },
            "Value": {
                "Lookups": [
                    {
                        "Item": 655,
                        "Version": -1,
                        "DisplayValue": "Pembayaran WARKAH HGB 00004 BRANGSONG dan PERMOHONAN HAK",
                        "VersionType": 1,
                        "ObjectType": 0,
                        "ObjectFlags": 64
                    }
                ],
                "HasValue": true,
                "DisplayValue": "Pembayaran WARKAH HGB 00004 BRANGSONG dan PERMOHONAN HAK",
                "SerializedValue": "655",
                "DataType": 10,
                "SortingKey": "",
                "HasAutomaticPermission": false
            },
            "PropertyDef": 1051,
            "ContentType": 0
        },
        {
            "TypedValue": {
                "Value": "BRANGSONG",
                "HasValue": true,
                "DisplayValue": "BRANGSONG",
                "SerializedValue": "BRANGSONG",
                "DataType": 13,
                "SortingKey": "",
                "HasAutomaticPermission": false
            },
            "Value": {
                "Value": "BRANGSONG",
                "HasValue": true,
                "DisplayValue": "BRANGSONG",
                "SerializedValue": "BRANGSONG",
                "DataType": 13,
                "SortingKey": "",
                "HasAutomaticPermission": false
            },
            "PropertyDef": 1068,
            "ContentType": 0
        },
        {
            "TypedValue": {
                "Value": "67.446",
                "HasValue": true,
                "DisplayValue": "67.446",
                "SerializedValue": "67.446",
                "DataType": 1,
                "SortingKey": "",
                "HasAutomaticPermission": false
            },
            "Value": {
                "Value": "67.446",
                "HasValue": true,
                "DisplayValue": "67.446",
                "SerializedValue": "67.446",
                "DataType": 1,
                "SortingKey": "",
                "HasAutomaticPermission": false
            },
            "PropertyDef": 1097,
            "ContentType": 0
        },
        {
            "TypedValue": {
                "Value": "Warkah Induk 00004, BRANGSONG",
                "HasValue": true,
                "DisplayValue": "Warkah Induk 00004, BRANGSONG",
                "SerializedValue": "Warkah%20Induk%2000004%2C%20BRANGSONG",
                "DataType": 1,
                "SortingKey": "",
                "HasAutomaticPermission": false
            },
            "Value": {
                "Value": "Warkah Induk 00004, BRANGSONG",
                "HasValue": true,
                "DisplayValue": "Warkah Induk 00004, BRANGSONG",
                "SerializedValue": "Warkah%20Induk%2000004%2C%20BRANGSONG",
                "DataType": 1,
                "SortingKey": "",
                "HasAutomaticPermission": false
            },
            "PropertyDef": 1101,
            "ContentType": 0
        },
        {
            "TypedValue": {
                "Value": "00004",
                "HasValue": true,
                "DisplayValue": "00004",
                "SerializedValue": "00004",
                "DataType": 1,
                "SortingKey": "",
                "HasAutomaticPermission": false
            },
            "Value": {
                "Value": "00004",
                "HasValue": true,
                "DisplayValue": "00004",
                "SerializedValue": "00004",
                "DataType": 1,
                "SortingKey": "",
                "HasAutomaticPermission": false
            },
            "PropertyDef": 1102,
            "ContentType": 0
        },
        {
            "TypedValue": {
                "Value": "2015-12-10T00:00:00Z",
                "HasValue": true,
                "DisplayValue": "12/10/2015",
                "SerializedValue": "2015-12-10T00%3A00%3A00",
                "DataType": 5,
                "SortingKey": "635853024000000000",
                "HasAutomaticPermission": false
            },
            "Value": {
                "Value": "2015-12-10T00:00:00Z",
                "HasValue": true,
                "DisplayValue": "12/10/2015",
                "SerializedValue": "2015-12-10T00%3A00%3A00",
                "DataType": 5,
                "SortingKey": "635853024000000000",
                "HasAutomaticPermission": false
            },
            "PropertyDef": 1103,
            "ContentType": 0
        },
        {
            "TypedValue": {
                "Lookup": {
                    "Item": 1,
                    "Version": -1,
                    "DisplayValue": "HGB",
                    "VersionType": 1,
                    "ObjectType": 116,
                    "ObjectFlags": 64
                },
                "HasValue": true,
                "DisplayValue": "HGB",
                "SerializedValue": "1",
                "DataType": 9,
                "SortingKey": "",
                "HasAutomaticPermission": false
            },
            "Value": {
                "Lookup": {
                    "Item": 1,
                    "Version": -1,
                    "DisplayValue": "HGB",
                    "VersionType": 1,
                    "ObjectType": 116,
                    "ObjectFlags": 64
                },
                "HasValue": true,
                "DisplayValue": "HGB",
                "SerializedValue": "1",
                "DataType": 9,
                "SortingKey": "",
                "HasAutomaticPermission": false
            },
            "PropertyDef": 1105,
            "ContentType": 0
        },
        {
            "TypedValue": {
                "Value": "2045-12-10T00:00:00Z",
                "HasValue": true,
                "DisplayValue": "12/10/2045",
                "SerializedValue": "2045-12-10T00%3A00%3A00",
                "DataType": 5,
                "SortingKey": "645320736000000000",
                "HasAutomaticPermission": false
            },
            "Value": {
                "Value": "2045-12-10T00:00:00Z",
                "HasValue": true,
                "DisplayValue": "12/10/2045",
                "SerializedValue": "2045-12-10T00%3A00%3A00",
                "DataType": 5,
                "SortingKey": "645320736000000000",
                "HasAutomaticPermission": false
            },
            "PropertyDef": 1106,
            "ContentType": 0
        },
        {
            "TypedValue": {
                "Lookup": {
                    "Item": 1,
                    "Version": -1,
                    "DisplayValue": "Induk",
                    "VersionType": 1,
                    "ObjectType": 117,
                    "ObjectFlags": 64
                },
                "HasValue": true,
                "DisplayValue": "Induk",
                "SerializedValue": "1",
                "DataType": 9,
                "SortingKey": "",
                "HasAutomaticPermission": false
            },
            "Value": {
                "Lookup": {
                    "Item": 1,
                    "Version": -1,
                    "DisplayValue": "Induk",
                    "VersionType": 1,
                    "ObjectType": 117,
                    "ObjectFlags": 64
                },
                "HasValue": true,
                "DisplayValue": "Induk",
                "SerializedValue": "1",
                "DataType": 9,
                "SortingKey": "",
                "HasAutomaticPermission": false
            },
            "PropertyDef": 1108,
            "ContentType": 0
        },
        {
            "TypedValue": {
                "Value": "00008",
                "HasValue": true,
                "DisplayValue": "00008",
                "SerializedValue": "00008",
                "DataType": 1,
                "SortingKey": "",
                "HasAutomaticPermission": false
            },
            "Value": {
                "Value": "00008",
                "HasValue": true,
                "DisplayValue": "00008",
                "SerializedValue": "00008",
                "DataType": 1,
                "SortingKey": "",
                "HasAutomaticPermission": false
            },
            "PropertyDef": 1111,
            "ContentType": 0
        },
        {
            "TypedValue": {
                "Value": "Kawasan Industri Kendal",
                "HasValue": true,
                "DisplayValue": "Kawasan Industri Kendal",
                "SerializedValue": "Kawasan%20Industri%20Kendal",
                "DataType": 1,
                "SortingKey": "",
                "HasAutomaticPermission": false
            },
            "Value": {
                "Value": "Kawasan Industri Kendal",
                "HasValue": true,
                "DisplayValue": "Kawasan Industri Kendal",
                "SerializedValue": "Kawasan%20Industri%20Kendal",
                "DataType": 1,
                "SortingKey": "",
                "HasAutomaticPermission": false
            },
            "PropertyDef": 1112,
            "ContentType": 0
        },
        {
            "TypedValue": {
                "Value": "2020-01-20T09:27:07Z",
                "HasValue": true,
                "DisplayValue": "1/20/2020 9:27 AM",
                "SerializedValue": "2020-01-20T09%3A27%3A07",
                "DataType": 7,
                "SortingKey": "637151092270000000",
                "HasAutomaticPermission": false
            },
            "Value": {
                "Value": "2020-01-20T09:27:07Z",
                "HasValue": true,
                "DisplayValue": "1/20/2020 9:27 AM",
                "SerializedValue": "2020-01-20T09%3A27%3A07",
                "DataType": 7,
                "SortingKey": "637151092270000000",
                "HasAutomaticPermission": false
            },
            "PropertyDef": 20,
            "ContentType": 0
        },
        {
            "TypedValue": {
                "Lookup": {
                    "Item": 19,
                    "Version": -1,
                    "DisplayValue": "Mochammad Chaqqul Islam",
                    "VersionType": 1,
                    "ObjectType": 6,
                    "ObjectFlags": 64
                },
                "HasValue": true,
                "DisplayValue": "Mochammad Chaqqul Islam",
                "SerializedValue": "19",
                "DataType": 9,
                "SortingKey": "",
                "HasAutomaticPermission": false
            },
            "Value": {
                "Lookup": {
                    "Item": 19,
                    "Version": -1,
                    "DisplayValue": "Mochammad Chaqqul Islam",
                    "VersionType": 1,
                    "ObjectType": 6,
                    "ObjectFlags": 64
                },
                "HasValue": true,
                "DisplayValue": "Mochammad Chaqqul Islam",
                "SerializedValue": "19",
                "DataType": 9,
                "SortingKey": "",
                "HasAutomaticPermission": false
            },
            "PropertyDef": 25,
            "ContentType": 0
        },
        {
            "TypedValue": {
                "Value": 1336797,
                "HasValue": true,
                "DisplayValue": "1336797",
                "SerializedValue": "1336797",
                "DataType": 2,
                "SortingKey": "1336797",
                "IsNumberSorting": true,
                "HasAutomaticPermission": false
            },
            "Value": {
                "Value": 1336797,
                "HasValue": true,
                "DisplayValue": "1336797",
                "SerializedValue": "1336797",
                "DataType": 2,
                "SortingKey": "1336797",
                "IsNumberSorting": true,
                "HasAutomaticPermission": false
            },
            "PropertyDef": 31,
            "ContentType": 0
        },
        {
            "TypedValue": {
                "Value": false,
                "HasValue": true,
                "DisplayValue": "No",
                "SerializedValue": "False",
                "DataType": 8,
                "SortingKey": "",
                "HasAutomaticPermission": false
            },
            "Value": {
                "Value": false,
                "HasValue": true,
                "DisplayValue": "No",
                "SerializedValue": "False",
                "DataType": 8,
                "SortingKey": "",
                "HasAutomaticPermission": false
            },
            "PropertyDef": 32,
            "ContentType": 0
        },
        {
            "TypedValue": {
                "Value": "2020-02-13T04:41:02Z",
                "HasValue": true,
                "DisplayValue": "2/13/2020 4:41 AM",
                "SerializedValue": "2020-02-13T04%3A41%3A02",
                "DataType": 7,
                "SortingKey": "637171656620000000",
                "HasAutomaticPermission": false
            },
            "Value": {
                "Value": "2020-02-13T04:41:02Z",
                "HasValue": true,
                "DisplayValue": "2/13/2020 4:41 AM",
                "SerializedValue": "2020-02-13T04%3A41%3A02",
                "DataType": 7,
                "SortingKey": "637171656620000000",
                "HasAutomaticPermission": false
            },
            "PropertyDef": 81,
            "ContentType": 0
        },
        {
            "TypedValue": {
                "Value": "2020-03-04T09:29:57Z",
                "HasValue": true,
                "DisplayValue": "3/4/2020 9:29 AM",
                "SerializedValue": "2020-03-04T09%3A29%3A57",
                "DataType": 7,
                "SortingKey": "637189109970000000",
                "HasAutomaticPermission": false
            },
            "Value": {
                "Value": "2020-03-04T09:29:57Z",
                "HasValue": true,
                "DisplayValue": "3/4/2020 9:29 AM",
                "SerializedValue": "2020-03-04T09%3A29%3A57",
                "DataType": 7,
                "SortingKey": "637189109970000000",
                "HasAutomaticPermission": false
            },
            "PropertyDef": 89,
            "ContentType": 0
        }
    ]
]